{
  "vnp_TmnCode":"3OA9UYGC",
  "vnp_HashSecret":"DRQSSMEJCAQQLXXIJEJZCRGPXKRENDUH",
  "vnp_Url":"https://sandbox.vnpayment.vn/paymentv2/vpcpay.html",
  "vnp_Api":"https://sandbox.vnpayment.vn/merchant_webapi/api/transaction",
  "vnp_ReturnUrl": "https://lienhoavn.pimob.me/order/vnpay_return"
}